{
  "ids": {
    "Todo": 5,
    "TodoList": 3
  },
  "models": {
    "Todo": {
      "1": "{\"title\":\"TODO 1\",\"desc\":\"MWAHAHAHAHAHAHAHAHAHAHAHAHAMWAHAHAHAHAHAHAHAHAHAHAHAHA\",\"todoListId\":1,\"id\":1}",
      "2": "{\"title\":\"TODO 2\",\"desc\":\"Make sure there are no survivors left!\",\"todoListId\":1,\"id\":2}",
      "3": "{\"title\":\"TODO 3\",\"desc\":\"Become the very best!\",\"todoListId\":2,\"id\":3}",
      "4": "{\"title\":\"TODO 4\",\"desc\":\"Every.Last.One.\",\"todoListId\":1,\"id\":4}"
    },
    "TodoList": {
      "1": "{\"title\":\"TodoList 1\",\"lastModified\":\"a long time ago\",\"id\":1}",
      "2": "{\"title\":\"TodoList 2\",\"lastModified\":\"2018-07-13\",\"id\":2}"
    }
  }
}
